%YAML 1.1
%TAG !u! tag:unity3d.com,2011:
--- !u!1001 &100100000
Prefab:
  m_ObjectHideFlags: 1
  serializedVersion: 2
  m_Modification:
    m_TransformParent: {fileID: 0}
    m_Modifications: []
    m_RemovedComponents: []
  m_ParentPrefab: {fileID: 0}
  m_RootGameObject: {fileID: 1987876781087804}
  m_IsPrefabParent: 1
--- !u!1 &1987876781087804
GameObject:
  m_ObjectHideFlags: 0
  m_PrefabParentObject: {fileID: 0}
  m_PrefabInternal: {fileID: 100100000}
  serializedVersion: 5
  m_Component:
  - component: {fileID: 4773303979047062}
  - component: {fileID: 114895224217688356}
  m_Layer: 0
  m_Name: Enemies
  m_TagString: Untagged
  m_Icon: {fileID: 0}
  m_NavMeshLayer: 0
  m_StaticEditorFlags: 0
  m_IsActive: 1
--- !u!4 &4773303979047062
Transform:
  m_ObjectHideFlags: 1
  m_PrefabParentObject: {fileID: 0}
  m_PrefabInternal: {fileID: 100100000}
  m_GameObject: {fileID: 1987876781087804}
  m_LocalRotation: {x: 0, y: 0, z: 0, w: 1}
  m_LocalPosition: {x: 0, y: 0, z: 0}
  m_LocalScale: {x: 1, y: 1, z: 1}
  m_Children: []
  m_Father: {fileID: 0}
  m_RootOrder: 0
  m_LocalEulerAnglesHint: {x: 0, y: 0, z: 0}
--- !u!114 &114895224217688356
MonoBehaviour:
  m_ObjectHideFlags: 1
  m_PrefabParentObject: {fileID: 0}
  m_PrefabInternal: {fileID: 100100000}
  m_GameObject: {fileID: 1987876781087804}
  m_Enabled: 1
  m_EditorHideFlags: 0
  m_Script: {fileID: 11500000, guid: d546f34a90531a14eaba82a43b05b86b, type: 3}
  m_Name: 
  m_EditorClassIdentifier: 
  version: 3
  materialIdsValid: 1
  needMaterialInstance: 0
  spriteDefinitions:
  - name: Enemy 1
    boundsData:
    - {x: 0.0150000155, y: 0.10000001, z: 0}
    - {x: 1.0699999, y: 0.91999996, z: 0}
    untrimmedBoundsData:
    - {x: 0, y: 0, z: 0}
    - {x: 2.56, y: 2.56, z: 0}
    texelSize: {x: 0.01, y: 0.01}
    positions:
    - {x: -0.52, y: -0.35999998, z: 0}
    - {x: 0.55, y: -0.35999998, z: 0}
    - {x: -0.52, y: 0.56, z: 0}
    - {x: 0.55, y: 0.56, z: 0}
    normals: []
    tangents: []
    uvs:
    - {x: 0.007816406, y: 0.007816406}
    - {x: 0.42577735, y: 0.007816406}
    - {x: 0.007816406, y: 0.3671836}
    - {x: 0.42577735, y: 0.3671836}
    normalizedUvs:
    - {x: 0, y: 0}
    - {x: 1, y: 0}
    - {x: 0, y: 1}
    - {x: 1, y: 1}
    indices: 000000000300000001000000020000000300000000000000
    material: {fileID: 2100000, guid: c2c32c945742ac247aff048ccd9f0d93, type: 2}
    materialId: 0
    materialIndexData: 000000000000000006000000
    sourceTextureGUID: 290ecbedde22a3c4097d3473019c90bd
    extractRegion: 0
    regionX: 0
    regionY: 0
    regionW: 0
    regionH: 0
    flipped: 0
    complexGeometry: 0
    physicsEngine: 0
    colliderType: 0
    customColliders: []
    colliderVertices: []
    colliderIndicesFwd: 
    colliderIndicesBack: 
    colliderConvex: 0
    colliderSmoothSphereCollisions: 0
    polygonCollider2D: []
    edgeCollider2D: []
    attachPoints: []
  - name: Enemy 2
    boundsData:
    - {x: 0.0150000155, y: 0.10000001, z: 0}
    - {x: 1.0699999, y: 0.91999996, z: 0}
    untrimmedBoundsData:
    - {x: 0, y: 0, z: 0}
    - {x: 2.56, y: 2.56, z: 0}
    texelSize: {x: 0.01, y: 0.01}
    positions:
    - {x: -0.52, y: -0.35999998, z: 0}
    - {x: 0.55, y: -0.35999998, z: 0}
    - {x: -0.52, y: 0.56, z: 0}
    - {x: 0.55, y: 0.56, z: 0}
    normals: []
    tangents: []
    uvs:
    - {x: 0.44141015, y: 0.007816406}
    - {x: 0.85937107, y: 0.007816406}
    - {x: 0.44141015, y: 0.3671836}
    - {x: 0.85937107, y: 0.3671836}
    normalizedUvs:
    - {x: 0, y: 0}
    - {x: 1, y: 0}
    - {x: 0, y: 1}
    - {x: 1, y: 1}
    indices: 000000000300000001000000020000000300000000000000
    material: {fileID: 2100000, guid: c2c32c945742ac247aff048ccd9f0d93, type: 2}
    materialId: 0
    materialIndexData: 000000000000000006000000
    sourceTextureGUID: 532556e14c65b884e8a66bc7d9dc5da6
    extractRegion: 0
    regionX: 0
    regionY: 0
    regionW: 0
    regionH: 0
    flipped: 0
    complexGeometry: 0
    physicsEngine: 0
    colliderType: 0
    customColliders: []
    colliderVertices: []
    colliderIndicesFwd: 
    colliderIndicesBack: 
    colliderConvex: 0
    colliderSmoothSphereCollisions: 0
    polygonCollider2D: []
    edgeCollider2D: []
    attachPoints: []
  - name: Enemy 3
    boundsData:
    - {x: 0.0150000155, y: 0.10000001, z: 0}
    - {x: 1.0699999, y: 0.91999996, z: 0}
    untrimmedBoundsData:
    - {x: 0, y: 0, z: 0}
    - {x: 2.56, y: 2.56, z: 0}
    texelSize: {x: 0.01, y: 0.01}
    positions:
    - {x: -0.52, y: -0.35999998, z: 0}
    - {x: 0.55, y: -0.35999998, z: 0}
    - {x: -0.52, y: 0.56, z: 0}
    - {x: 0.55, y: 0.56, z: 0}
    normals: []
    tangents: []
    uvs:
    - {x: 0.007816406, y: 0.3828164}
    - {x: 0.007816406, y: 0.8007773}
    - {x: 0.3671836, y: 0.3828164}
    - {x: 0.3671836, y: 0.8007773}
    normalizedUvs:
    - {x: 0, y: 0}
    - {x: 0, y: 1}
    - {x: 1, y: 0}
    - {x: 1, y: 1}
    indices: 000000000300000001000000020000000300000000000000
    material: {fileID: 2100000, guid: c2c32c945742ac247aff048ccd9f0d93, type: 2}
    materialId: 0
    materialIndexData: 000000000000000006000000
    sourceTextureGUID: a513998e2ab2b3c40b08f2c7ab62c5c7
    extractRegion: 0
    regionX: 0
    regionY: 0
    regionW: 0
    regionH: 0
    flipped: 1
    complexGeometry: 0
    physicsEngine: 0
    colliderType: 0
    customColliders: []
    colliderVertices: []
    colliderIndicesFwd: 
    colliderIndicesBack: 
    colliderConvex: 0
    colliderSmoothSphereCollisions: 0
    polygonCollider2D: []
    edgeCollider2D: []
    attachPoints: []
  premultipliedAlpha: 0
  material: {fileID: 0}
  materials:
  - {fileID: 2100000, guid: c2c32c945742ac247aff048ccd9f0d93, type: 2}
  textures:
  - {fileID: 2800000, guid: c73dcc40c0e381247a5340bc821b655d, type: 3}
  pngTextures: []
  materialPngTextureId: 00000000
  textureFilterMode: 1
  textureMipMaps: 0
  allowMultipleAtlases: 0
  spriteCollectionGUID: 3b14d58345618494d83853e3d3628369
  spriteCollectionName: Enemies
  assetName: 
  loadable: 0
  invOrthoSize: 2
  halfTargetHeight: 50
  buildKey: 1659972673
  dataGuid: 7317ea7cb580d9841940bd19c9482276
  managedSpriteCollection: 0
  hasPlatformData: 0
  spriteCollectionPlatforms: []
  spriteCollectionPlatformGUIDs: []
