%YAML 1.1
%TAG !u! tag:unity3d.com,2011:
--- !u!78 &1
TagManager:
  serializedVersion: 2
  tags: []
  layers:
  - Default
  - TransparentFX
  - Ignore Raycast
  - 
  - Water
  - UI
  - 
  - 
  - Radar
  - Beats
  - Metronome
  - HUD
  - 
  - 
  - 
  - 
  - 
  - 
  - 
  - 
  - 
  - 
  - 
  - 
  - 
  - 
  - 
  - 
  - 
  - 
  - 
  - 
  m_SortingLayers:
  - name: Default
    uniqueID: 0
    locked: 0
  - name: Background
    uniqueID: 807859627
    locked: 0
  - name: Compass
    uniqueID: 590962065
    locked: 0
  - name: Enemies
    uniqueID: 4247163883
    locked: 0
  - name: Effects
    uniqueID: 230761683
    locked: 0
  - name: UI
    uniqueID: 3670260701
    locked: 0
