%YAML 1.1
%TAG !u! tag:unity3d.com,2011:
--- !u!114 &11400000
MonoBehaviour:
  m_ObjectHideFlags: 0
  m_PrefabParentObject: {fileID: 0}
  m_PrefabInternal: {fileID: 0}
  m_GameObject: {fileID: 0}
  m_Enabled: 1
  m_EditorHideFlags: 0
  m_Script: {fileID: 11500000, guid: f948d54487626463091054be543be75a, type: 3}
  m_Name: EditorGameCenter 4
  m_EditorClassIdentifier: 
  m_registeredUsers: []
  m_leaderboardList: []
  m_achievementsList: []
  m_achievementDescriptionList: []
